<?xml version="1.0" encoding="UTF-8"?>
<svg width="265px" height="190px" viewBox="0 0 265 190" version="1.1" xmlns="http://www.w3.org/2000/svg" xmlns:xlink="http://www.w3.org/1999/xlink">
    <!-- Generator: Sketch 47.1 (45422) - http://www.bohemiancoding.com/sketch -->
    <title>webcast-badge</title>
    <desc>Created with Sketch.</desc>
    <defs>
        <rect id="path-1" x="5.94058697" y="5.40943473" width="112.306184" height="75.7320862" rx="5.39999954"></rect>
        <filter x="-10.0%" y="-3.4%" width="120.1%" height="114.7%" filterUnits="objectBoundingBox" id="filter-2">
            <feOffset dx="0" dy="2" in="SourceAlpha" result="shadowOffsetOuter1"></feOffset>
            <feGaussianBlur stdDeviation="1" in="shadowOffsetOuter1" result="shadowBlurOuter1"></feGaussianBlur>
            <feColorMatrix values="0 0 0 0 0   0 0 0 0 0   0 0 0 0 0  0 0 0 0.5 0" type="matrix" in="shadowBlurOuter1" result="shadowMatrixOuter1"></feColorMatrix>
            <feMerge>
                <feMergeNode in="shadowMatrixOuter1"></feMergeNode>
                <feMergeNode in="SourceGraphic"></feMergeNode>
            </feMerge>
        </filter>
        <path d="M1.61999986,85.4690687 L142.002331,85.4690687 L142.002331,85.4690687 C142.897033,85.4690687 143.622331,86.1943673 143.622331,87.0890685 L143.622331,89.7966165 L143.622331,89.7966165 C143.622331,92.1866551 141.684822,94.1241642 139.294784,94.1241642 L4.32754778,94.1241642 L4.32754778,94.1241642 C1.93750914,94.1241642 2.92695318e-16,92.1866551 0,89.7966165 L0,87.0890685 L-2.22044605e-16,87.0890685 C-3.31613903e-16,86.1943673 0.725298643,85.4690687 1.61999986,85.4690687 Z" id="path-3"></path>
        <filter x="-1.0%" y="-17.3%" width="102.1%" height="134.7%" filterUnits="objectBoundingBox" id="filter-4">
            <feOffset dx="0" dy="0" in="SourceAlpha" result="shadowOffsetOuter1"></feOffset>
            <feGaussianBlur stdDeviation="0.5" in="shadowOffsetOuter1" result="shadowBlurOuter1"></feGaussianBlur>
            <feColorMatrix values="0 0 0 0 0   0 0 0 0 0   0 0 0 0 0  0 0 0 0.5 0" type="matrix" in="shadowBlurOuter1"></feColorMatrix>
        </filter>
        <filter x="-9.7%" y="-4.8%" width="120.8%" height="119.3%" filterUnits="objectBoundingBox" id="filter-5">
            <feOffset dx="0" dy="2" in="SourceAlpha" result="shadowOffsetOuter1"></feOffset>
            <feGaussianBlur stdDeviation="1" in="shadowOffsetOuter1" result="shadowBlurOuter1"></feGaussianBlur>
            <feColorMatrix values="0 0 0 0 0   0 0 0 0 0   0 0 0 0 0  0 0 0 0.5 0" type="matrix" in="shadowBlurOuter1" result="shadowMatrixOuter1"></feColorMatrix>
            <feMerge>
                <feMergeNode in="shadowMatrixOuter1"></feMergeNode>
                <feMergeNode in="SourceGraphic"></feMergeNode>
            </feMerge>
        </filter>
        <filter x="-13.6%" y="-11.1%" width="127.2%" height="144.4%" filterUnits="objectBoundingBox" id="filter-6">
            <feOffset dx="0" dy="2" in="SourceAlpha" result="shadowOffsetOuter1"></feOffset>
            <feGaussianBlur stdDeviation="1" in="shadowOffsetOuter1" result="shadowBlurOuter1"></feGaussianBlur>
            <feColorMatrix values="0 0 0 0 0   0 0 0 0 0   0 0 0 0 0  0 0 0 0.5 0" type="matrix" in="shadowBlurOuter1" result="shadowMatrixOuter1"></feColorMatrix>
            <feMerge>
                <feMergeNode in="shadowMatrixOuter1"></feMergeNode>
                <feMergeNode in="SourceGraphic"></feMergeNode>
            </feMerge>
        </filter>
        <filter x="-8.7%" y="-5.0%" width="118.0%" height="120.8%" filterUnits="objectBoundingBox" id="filter-7">
            <feOffset dx="0" dy="2" in="SourceAlpha" result="shadowOffsetOuter1"></feOffset>
            <feGaussianBlur stdDeviation="1" in="shadowOffsetOuter1" result="shadowBlurOuter1"></feGaussianBlur>
            <feColorMatrix values="0 0 0 0 0   0 0 0 0 0   0 0 0 0 0  0 0 0 0.5 0" type="matrix" in="shadowBlurOuter1" result="shadowMatrixOuter1"></feColorMatrix>
            <feMerge>
                <feMergeNode in="shadowMatrixOuter1"></feMergeNode>
                <feMergeNode in="SourceGraphic"></feMergeNode>
            </feMerge>
        </filter>
        <ellipse id="path-8" cx="18.042734" cy="18.0764812" rx="17.817808" ry="17.8511346"></ellipse>
        <filter x="-20.1%" y="-14.4%" width="140.1%" height="140.1%" filterUnits="objectBoundingBox" id="filter-9">
            <feMorphology radius="3.14999986" operator="dilate" in="SourceAlpha" result="shadowSpreadOuter1"></feMorphology>
            <feOffset dx="0" dy="2" in="shadowSpreadOuter1" result="shadowOffsetOuter1"></feOffset>
            <feGaussianBlur stdDeviation="1" in="shadowOffsetOuter1" result="shadowBlurOuter1"></feGaussianBlur>
            <feComposite in="shadowBlurOuter1" in2="SourceAlpha" operator="out" result="shadowBlurOuter1"></feComposite>
            <feColorMatrix values="0 0 0 0 0   0 0 0 0 0   0 0 0 0 0  0 0 0 0.5 0" type="matrix" in="shadowBlurOuter1"></feColorMatrix>
        </filter>
        <filter x="-8.7%" y="-5.0%" width="118.0%" height="120.8%" filterUnits="objectBoundingBox" id="filter-10">
            <feOffset dx="0" dy="2" in="SourceAlpha" result="shadowOffsetOuter1"></feOffset>
            <feGaussianBlur stdDeviation="1" in="shadowOffsetOuter1" result="shadowBlurOuter1"></feGaussianBlur>
            <feColorMatrix values="0 0 0 0 0   0 0 0 0 0   0 0 0 0 0  0 0 0 0.5 0" type="matrix" in="shadowBlurOuter1" result="shadowMatrixOuter1"></feColorMatrix>
            <feMerge>
                <feMergeNode in="shadowMatrixOuter1"></feMergeNode>
                <feMergeNode in="SourceGraphic"></feMergeNode>
            </feMerge>
        </filter>
    </defs>
    <g id="Desktop" stroke="none" stroke-width="1" fill="none" fill-rule="evenodd">
        <g id="gitlab-webcast-header-devops-dot-com-copy-2" transform="translate(-173.000000, -36.000000)">
            <g id="webcast-badge" transform="translate(169.000000, 36.000000)">
                <path d="M217.7754,102.396975 L143.9439,156.013725 L146.20815,153.111975 L210.70365,70.462725 L219.43065,97.274475 C220.04565,99.171225 219.38115,101.229975 217.7754,102.396975 L217.7754,102.396975 Z M46.8849,102.397725 C45.2784,101.229975 44.61315,99.171225 45.22815,97.276725 L53.9559,70.458975 L120.7134,156.043725 L46.8849,102.397725 Z M75.0939,5.314725 C75.3414,4.581225 75.96615,4.500225 76.23015,4.500225 L76.2369,4.500225 C76.48965,4.501725 77.10165,4.581225 77.33265,5.292225 L96.2589,63.451725 L56.2449,63.451725 L75.0939,5.314725 Z M162.2394,67.951725 L132.34815,159.935475 L102.4554,67.951725 L162.2394,67.951725 Z M187.32615,5.292225 C187.5579,4.581225 188.16915,4.501725 188.42115,4.500225 C188.6634,4.475475 189.31665,4.575225 189.5574,5.290725 L208.4484,63.451725 L168.4359,63.451725 L187.32615,5.292225 Z M138.4389,155.752725 L166.96065,67.986225 L206.9229,67.986225 L142.8684,150.075975 L138.4389,155.752725 Z M97.7109,67.986225 L126.2304,155.745225 L57.7779,67.986225 L97.7109,67.986225 Z M223.71015,95.883225 L213.7914,65.409975 C213.76215,65.187225 213.7014,64.967475 213.6039,64.756725 L193.8294,3.877725 C193.0344,1.518975 190.91715,0.000225 188.43015,0.000225 L188.3979,0.000225 C185.91465,0.012975 183.81465,1.543725 183.04665,3.900975 L163.70415,63.451725 L100.9899,63.451725 L81.6114,3.899475 C80.84415,1.542975 78.74415,0.012225 76.26015,0.000225 L76.22865,0.000225 C73.7424,0.000225 71.6244,1.518975 70.8219,3.902475 L51.0459,64.897725 C51.03165,64.937475 51.01215,64.975725 50.9994,65.015475 C50.9964,65.024475 50.9904,65.031975 50.9874,65.040225 L40.9479,95.885475 C39.72915,99.640725 41.0514,103.721475 44.2389,106.037475 L130.98465,169.069725 C131.38215,169.358475 131.84565,169.500225 132.3069,169.500225 C132.77865,169.500225 133.2459,169.345725 133.63815,169.055475 C133.64865,169.047975 133.66065,169.042725 133.6704,169.035975 C133.67115,169.035225 133.6719,169.034475 133.67265,169.034475 L220.4199,106.037475 C223.6074,103.721475 224.92965,99.640725 223.71015,95.883225 L223.71015,95.883225 Z" id="Fill-1" fill-opacity="0.149999991" fill="#A686FF"></path>
                <g id="text" transform="translate(37.500000, 177.000000)">
                    <g id="Group-4">
                        <rect id="Rectangle" fill-opacity="0.149999991" fill="#A686FF" x="6" y="6.75" width="19.5" height="1.5" rx="0.674999982"></rect>
                        <rect id="Rectangle-Copy-2" fill-opacity="0.149999991" fill="#A686FF" x="162.75" y="6.75" width="19.5" height="1.5" rx="0.674999982"></rect>
                        <circle id="Oval-5" stroke-opacity="0.149999991" stroke="#A686FF" stroke-width="1.5" stroke-linecap="round" stroke-linejoin="round" cx="3" cy="7.5" r="3"></circle>
                        <circle id="Oval-5-Copy" stroke-opacity="0.149999991" stroke="#A686FF" stroke-width="1.5" stroke-linecap="round" stroke-linejoin="round" cx="185.25" cy="7.5" r="3"></circle>
                        <text id="GITLAB-WEBCAST" font-family="Lato-Black, Lato" font-size="12" font-weight="700" letter-spacing="1.5" fill="#FA7035">
                            <tspan x="32.8095" y="12">GITLAB WEBCAS</tspan>
                            <tspan x="147.8775" y="12" letter-spacing="1.125">T</tspan>
                        </text>
                    </g>
                </g>
                <g id="illustration" transform="translate(0.000000, 27.000000)">
                    <g id="Group-9" transform="translate(59.817929, 0.000000)">
                        <g id="Group-3" transform="translate(-0.000000, 26.250000)">
                            <g id="Group-2" transform="translate(9.718804, 0.000000)">
                                <rect id="Rectangle-3" fill="#FFFFFF" x="0" y="0" width="124.184723" height="86.5509556" rx="8.0999993"></rect>
                                <g id="Rectangle-3">
                                    <use fill="#27292E" fill-rule="evenodd" xlink:href="#path-1"></use>
                                    <rect stroke="#D7D7D7" stroke-width="1.94999993" x="4.965587" y="4.43443476" width="114.256184" height="77.6820861" rx="5.39999954"></rect>
                                </g>
                                <g id="Group-17" filter="url(#filter-2)" transform="translate(42.114819, 14.064530)">
                                    <path d="M15.658472,17.8511346 L23.2167455,17.8511346 L23.2167455,17.8511346 C25.006148,17.8511346 26.4567452,19.3017319 26.4567452,21.0911343 L26.4567452,31.9251001 L26.4567452,31.9251001 C26.4567452,34.9074375 24.0390831,37.3250996 21.0567457,37.3250996 L17.8184718,37.3250996 L17.8184718,37.3250996 C14.8361344,37.3250996 12.4184723,34.9074375 12.4184723,31.9251001 L12.4184723,21.0911343 L12.4184723,21.0911343 C12.4184723,19.3017319 13.8690695,17.8511346 15.658472,17.8511346 Z" id="Rectangle-12" fill="#FFFFFF"></path>
                                    <ellipse id="Oval-7" fill="#CFCFCF" cx="17.2778744" cy="20.0149085" rx="1" ry="1"></ellipse>
                                    <ellipse id="Oval-7-Copy" fill="#CFCFCF" cx="19.4376087" cy="20.0149085" rx="1" ry="1"></ellipse>
                                    <ellipse id="Oval-7-Copy-2" fill="#CFCFCF" cx="21.5973431" cy="20.0149085" rx="1" ry="1"></ellipse>
                                    <polygon id="Rectangle-10" fill="#664CAF" points="14.038273 43.2754778 24.8369445 43.2754778 24.2970109 47.0620821 14.5782066 47.0620821"></polygon>
                                    <rect id="Rectangle-13" fill="#8A68EC" x="17.817808" y="50.307743" width="3.23960146" height="7.57320862" rx="1.07999991"></rect>
                                    <rect id="Rectangle-14" fill="#664CAF" x="14.038273" y="56.2581212" width="10.7986715" height="2.16377389" rx="1.07999991"></rect>
                                    <rect id="Rectangle-11-Copy" fill="#664CAF" x="15.6580737" y="48.1439691" width="7.55907007" height="3.78660431"></rect>
                                    <rect id="Rectangle-11" fill="#8A68EC" x="14.5782066" y="47.0620821" width="9.71880437" height="1.62283042"></rect>
                                    <rect id="Rectangle-5-Copy" fill="#8A68EC" x="12.4184723" y="34.0794388" width="14.038273" height="10.8188695" rx="1.07999991"></rect>
                                    <rect id="Rectangle-4" fill="#E7E6E8" x="17.817808" y="37.3250996" width="3.23960146" height="5.40943473" rx="1.07999991"></rect>
                                    <rect id="Rectangle-5" fill="#E96729" x="10.7986715" y="30.8337779" width="17.2778744" height="4.32754778" rx="1.07999991"></rect>
                                    <path d="M19.9775423,0 L19.9775423,0 C20.5739365,-1.0955583e-16 21.0574095,0.483472992 21.0574095,1.07986715 L21.0574095,7.57522841 C21.0574095,8.17162257 20.5739365,8.65509556 19.9775423,8.65509556 C19.3811482,8.65509556 18.8976752,8.17162257 18.8976752,7.57522841 L18.8976752,1.07986715 L18.8976752,1.07986715 C18.8976752,0.483472992 19.3811482,1.0955583e-16 19.9775423,0 L19.9775423,0 Z M39.3818872,9.34362161 C39.7572102,9.80710693 39.6857405,10.4870954 39.2222552,10.8624184 L34.1744115,14.9500817 L34.1744115,14.9500817 C33.7109261,15.3254047 33.0309377,15.2539351 32.6556146,14.7904497 C32.2802916,14.3269644 32.3517613,13.6469759 32.8152466,13.2716529 L37.8630904,9.18398964 C38.3265757,8.80866663 39.0065642,8.8801363 39.3818872,9.34362161 Z M0.573197443,9.34362161 L0.573197443,9.34362161 C0.948520449,8.8801363 1.62850895,8.80866663 2.09199426,9.18398964 L7.13983803,13.2716529 C7.60332334,13.6469759 7.67479301,14.3269644 7.29947001,14.7904497 C6.924147,15.2539351 6.2441585,15.3254047 5.78067319,14.9500817 L0.732829421,10.8624184 L0.732829421,10.8624184 C0.269344108,10.4870954 0.197874437,9.80710693 0.573197443,9.34362161 L0.573197443,9.34362161 Z" id="Rectangle-15" fill="#F5A232"></path>
                                </g>
                            </g>
                            <g id="Rectangle-2">
                                <use fill="black" fill-opacity="1" filter="url(#filter-4)" xlink:href="#path-3"></use>
                                <use fill="#DADADA" fill-rule="evenodd" xlink:href="#path-3"></use>
                            </g>
                        </g>
                        <g id="Group-6" filter="url(#filter-5)" transform="translate(126.837966, 25.829379) rotate(-345.000000) translate(-126.837966, -25.829379) translate(106.149492, 5.103632)">
                            <ellipse id="Oval" fill="#FAFAFA" cx="20.9096925" cy="20.4460999" rx="20.3872407" ry="20.4253731"></ellipse>
                            <g id="gitlab-logo-copy" transform="translate(9.238603, 10.277926)">
                                <g id="Group-5">
                                    <polygon id="Fill-4" fill="#E24329" points="11.8154672 21.956272 11.8154672 21.956272 16.161018 8.47321283 7.46991639 8.47321283 11.8154672 21.956272"></polygon>
                                    <polygon id="Fill-8" fill="#FC6D26" points="11.8154672 21.9562493 7.46991639 8.47319015 1.37973488 8.47319015"></polygon>
                                    <path d="M1.37974612,8.47322416 L1.37974612,8.47322416 L0.0592115038,12.570602 C-0.0612358287,12.9442969 0.0706826784,13.3537059 0.386027515,13.5846574 L11.8154785,21.9562833 L1.37974612,8.47322416 L1.37974612,8.47322416 Z" id="Fill-12" fill="#FCA326"></path>
                                    <path d="M1.37974612,8.4732355 L7.46992764,8.4732355 L4.85258798,0.352515767 C4.71797038,-0.0653965954 4.13159092,-0.0652832171 3.99697332,0.352515767 L1.37974612,8.4732355 L1.37974612,8.4732355 Z" id="Fill-16" fill="#E24329"></path>
                                    <polygon id="Fill-18" fill="#FC6D26" points="11.8154672 21.9562493 16.161018 8.47319015 22.2511995 8.47319015"></polygon>
                                    <path d="M22.2511995,8.47322416 L22.2511995,8.47322416 L23.5717342,12.570602 C23.6921815,12.9442969 23.560263,13.3537059 23.2449182,13.5846574 L11.8154672,21.9562833 L22.2511995,8.47322416 L22.2511995,8.47322416 Z" id="Fill-20" fill="#FCA326"></path>
                                    <path d="M22.2511995,8.4732355 L16.161018,8.4732355 L18.7783577,0.352515767 C18.9129753,-0.0653965954 19.4993547,-0.0652832171 19.6339724,0.352515767 L22.2511995,8.4732355 L22.2511995,8.4732355 Z" id="Fill-22" fill="#E24329"></path>
                                </g>
                            </g>
                        </g>
                    </g>
                    <g id="Group-8" filter="url(#filter-6)" transform="translate(0.148664, 24.698555)"></g>
                    <g id="Group-11" filter="url(#filter-7)" transform="translate(221.425390, 37.847015)">
                        <rect id="Rectangle-8" fill="#6B4FBB" x="0" y="0" width="45.5746102" height="31.238806" rx="3.59999979"></rect>
                        <g id="Group-10" transform="translate(10.573797, 13.137587)" fill="#FFFFFF" opacity="0.699999988">
                            <path d="M2.61885353,4.88513131 C1.29410815,4.88513131 0.220189832,3.80920433 0.220189832,2.48198114 C0.220189832,1.15475794 1.29410815,0.0788309583 2.61885353,0.0788309583 C3.94359891,0.0788309583 5.01751723,1.15475794 5.01751723,2.48198114 C5.01751723,3.80920433 3.94359891,4.88513131 2.61885353,4.88513131 Z M12.2135083,4.88513131 C10.8887629,4.88513131 9.81484462,3.80920433 9.81484462,2.48198114 C9.81484462,1.15475794 10.8887629,0.0788309583 12.2135083,0.0788309583 C13.5382537,0.0788309583 14.612172,1.15475794 14.612172,2.48198114 C14.612172,3.80920433 13.5382537,4.88513131 12.2135083,4.88513131 Z M21.8081631,4.88513131 C20.4834177,4.88513131 19.4094994,3.80920433 19.4094994,2.48198114 C19.4094994,1.15475794 20.4834177,0.0788309583 21.8081631,0.0788309583 C23.1329085,0.0788309583 24.2068268,1.15475794 24.2068268,2.48198114 C24.2068268,3.80920433 23.1329085,4.88513131 21.8081631,4.88513131 Z" id="Combined-Shape"></path>
                        </g>
                        <path d="M14.3919822,29.3420868 L14.3919822,39.0485075 L0,39.0485075 L12.6198489,28.5130204 L12.6198489,28.5130204 C13.0777296,28.1307657 13.758794,28.1920727 14.1410487,28.6499534 C14.3031745,28.8441545 14.3919822,29.0891069 14.3919822,29.3420868 Z" id="Triangle-2" fill="#6B4FBB" transform="translate(7.195991, 33.041045) scale(-1, -1) translate(-7.195991, -33.041045) "></path>
                    </g>
                    <g id="Group-18" transform="translate(65.786359, 85.552671) rotate(-20.000000) translate(-65.786359, -85.552671) translate(47.786359, 67.552671)">
                        <g id="Oval-6">
                            <use fill="black" fill-opacity="1" filter="url(#filter-9)" xlink:href="#path-8"></use>
                            <use fill="#FC6D26" fill-rule="evenodd" xlink:href="#path-8"></use>
                            <ellipse stroke="#FFFFFF" stroke-width="3.14999986" cx="18.042734" cy="18.0764812" rx="19.3928079" ry="19.4261345"></ellipse>
                        </g>
                        <path d="M23.4319165,19.7292547 L15.9163105,23.9831052 L15.9163105,23.9831052 C15.1376788,24.4238126 14.1492092,24.1498708 13.7085019,23.3712391 C13.5707424,23.1278488 13.4983394,22.85294 13.4983394,22.5732678 L13.4983394,14.0655669 L13.4983394,14.0655669 C13.4983394,13.1708657 14.2236381,12.445567 15.1183393,12.445567 C15.3980114,12.445567 15.6729202,12.51797 15.9163105,12.6557295 L23.4319165,16.90958 L23.4319165,16.90958 C24.2105481,17.3502873 24.4844899,18.3387569 24.0437826,19.1173886 C23.899078,19.3730494 23.6875773,19.5845501 23.4319165,19.7292547 Z" id="Triangle" fill="#FFFFFF"></path>
                    </g>
                    <g id="Group-7" filter="url(#filter-10)" transform="translate(6.000000, 16.220149)">
                        <rect id="Rectangle-8-Copy" fill="#6B4FBB" transform="translate(22.787305, 15.619403) scale(-1, 1) translate(-22.787305, -15.619403) " x="0" y="0" width="45.5746102" height="31.238806" rx="3.59999979"></rect>
                        <path d="M45.5746102,29.3420868 L45.5746102,39.0485075 L31.1826281,39.0485075 L43.8024769,28.5130204 L43.8024769,28.5130204 C44.2603577,28.1307657 44.9414221,28.1920727 45.3236768,28.6499534 C45.4858026,28.8441545 45.5746102,29.0891069 45.5746102,29.3420868 Z" id="Triangle-2-Copy" fill="#6B4FBB" transform="translate(38.378619, 33.041045) scale(1, -1) translate(-38.378619, -33.041045) "></path>
                        <path d="M9.59532287,7.20895522 L28.7832963,7.20895522 C29.4460379,7.20895522 29.9832962,7.74621349 29.9832962,8.40895515 L29.9832962,8.41194037 L29.9832962,8.41194037 C29.9832962,9.07468203 29.4460379,9.6119403 28.7832963,9.6119403 L9.59532287,9.6119403 C8.93258121,9.6119403 8.39532294,9.07468203 8.39532294,8.41194037 L8.39532294,8.40895515 L8.39532294,8.40895515 C8.39532294,7.74621349 8.93258121,7.20895522 9.59532287,7.20895522 L9.59532287,7.20895522 Z M9.59532287,14.4179104 L35.9792874,14.4179104 C36.642029,14.4179104 37.1792873,14.9551687 37.1792873,15.6179104 L37.1792873,15.6208956 C37.1792873,16.2836373 36.642029,16.8208955 35.9792874,16.8208955 L9.59532287,16.8208955 C8.93258121,16.8208955 8.39532294,16.2836373 8.39532294,15.6208956 L8.39532294,15.6179104 C8.39532294,14.9551687 8.93258121,14.4179104 9.59532287,14.4179104 L9.59532287,14.4179104 Z M9.59532287,21.6268657 L22.786637,21.6268657 C23.4493787,21.6268657 23.986637,22.1641239 23.986637,22.8268656 L23.986637,22.8298508 C23.986637,23.4925925 23.4493787,24.0298507 22.786637,24.0298507 L9.59532287,24.0298507 C8.93258121,24.0298507 8.39532294,23.4925925 8.39532294,22.8298508 L8.39532294,22.8268656 L8.39532294,22.8268656 C8.39532294,22.1641239 8.93258121,21.6268657 9.59532287,21.6268657 Z" id="Combined-Shape" fill="#FFFFFF" opacity="0.699999988"></path>
                    </g>
                </g>
            </g>
        </g>
    </g>
</svg>