<?xml version="1.0" encoding="UTF-8"?>
<svg width="43px" height="36px" viewBox="0 0 43 36" version="1.1" xmlns="http://www.w3.org/2000/svg" xmlns:xlink="http://www.w3.org/1999/xlink">
    <!-- Generator: Sketch 50.2 (55047) - http://www.bohemiancoding.com/sketch -->
    <title>Oval</title>
    <desc>Created with Sketch.</desc>
    <defs>
        <path d="M43,0.983985172 C41.1282979,2.30423647 39.0559381,3.31401688 36.8627273,3.97443972 C34.4515209,1.20199086 30.5659049,0.229754053 27.1331592,1.53996234 C23.7004135,2.85017062 21.450746,6.16411869 21.5,9.83807608 L21.5,11.7926215 C14.5235722,11.9735194 7.91986765,8.6496548 3.90909091,2.93853063 C3.90909091,2.93853063 -3.90909091,20.5294397 13.6818182,28.3476215 C9.65648569,31.0800102 4.86126124,32.4500744 0,32.2567124 C17.5909091,42.0294397 39.0909091,32.2567124 39.0909091,9.77943972 C39.0891092,9.23500819 39.0367633,8.69191968 38.9345455,8.15716699 C40.9293607,6.18990346 42.3370717,3.70610562 43,0.983985172 Z" id="path-1"></path>
    </defs>
    <g id="Symbols" stroke="none" stroke-width="1" fill="none" fill-rule="evenodd">
        <g id="Icon-Copy-15" transform="translate(0.000000, -4.000000)">
            <g id="Oval" transform="translate(0.000000, 3.000000)">
                <mask id="mask-2" fill="white">
                    <use xlink:href="#path-1"></use>
                </mask>
                <use id="Mask" fill="#E24329" fill-rule="nonzero" xlink:href="#path-1"></use>
                <circle id="Oval-Copy" fill="#FC6D26" mask="url(#mask-2)" cx="22" cy="8" r="22"></circle>
                <circle fill="#FCBA29" mask="url(#mask-2)" cx="35.3999996" cy="10" r="14"></circle>
            </g>
        </g>
    </g>
</svg>